<?xml version="1.0" encoding="utf-8"?>
<!-- Generator: Adobe Illustrator 20.1.0, SVG Export Plug-In . SVG Version: 6.00 Build 0)  -->
<svg version="1.1" id="Layer_1" xmlns="http://www.w3.org/2000/svg" xmlns:xlink="http://www.w3.org/1999/xlink" x="0px" y="0px"
	 viewBox="0 0 100 100" style="enable-background:new 0 0 100 100;" xml:space="preserve">
<path d="M96.9,67.5L53.4,47.7v-7.2c2.7-2,4.3-5.1,4.3-8.5c0-5.3-4.4-9.5-9.6-9.5c0,0,0,0,0,0c-5.3,0-9.6,4.3-9.6,9.5
	c0,2.2,1.8,4,4,4c2.2,0,4-1.8,4-4c0-0.9,0.8-1.7,1.7-1.6c0.9,0,1.6,0.7,1.6,1.6c0,1.1-0.6,2.2-1.7,2.6c-1,0.4-1.8,1.2-2.1,2.2
	c-0.2,0.5-0.3,1.1-0.3,1.7v9.4l-42,19.4c-1,0.4-3.6,1.5-3.6,4.3v0.8c0.1,2.8,2.3,5.1,5.2,5.1h89.7c2.8,0,5.1-2.3,5.2-5.1v-0.8
	C100,69.1,97.9,68.1,96.9,67.5z M17.2,69.6l32.3-15l33.1,15H17.2L17.2,69.6z"/>
</svg>
