<?xml version="1.0" encoding="utf-8"?>
<!-- Generator: Adobe Illustrator 20.1.0, SVG Export Plug-In . SVG Version: 6.00 Build 0)  -->
<svg version="1.1" id="Layer_1" xmlns="http://www.w3.org/2000/svg" xmlns:xlink="http://www.w3.org/1999/xlink" x="0px" y="0px"
	 viewBox="0 0 850.4 850.4" style="enable-background:new 0 0 850.4 850.4;" xml:space="preserve">
<g>
	<path d="M840.6,341.5c-20.4-35.1-41.1-70.1-60.7-105.7c-5.2-9.3-10.8-13.2-21.3-12.1c-5.4,0.6-6.6,1.8-6.5,6.9
		c0.3,29.7,0,59.4,0.3,89c0.1,5.5-1,7.4-7,7.3c-28.9-0.3-57.7-0.3-86.6,0c-5.8,0.1-7.2-1.7-7.2-7.3c0.2-29.7,0.1-59.4,0-89
		c0-2.2,1.5-5-1.5-6.5c-6.1-3.1-19.4,1-23,7.1c-21,36.4-41.8,72.8-63,109c-2.6,4.5-2.6,6.9,1.3,10.7c27.4,27.3,54.5,54.8,81.7,82.3
		c2.2,2.2,4.2,4,4.2,8.1c-0.4,61.5-0.4,123.1-0.6,184.6c0,2.2,1.3,4.8-1.3,6.8c-14.8-17.6-29.6-35-44.3-52.4c-1.8-2.1-3.2-4.3-6.2-5
		c-29.3-6.4-58.6-12.8-88.5-19.4c0,3.2,0,5.9,0,8.6c0,38.7-0.1,77.3,0.2,116c0.1,6.2-1.5,7.8-7.6,7.5c-9.5-0.6-19.1-0.6-28.6,0
		c-6.8,0.4-9.2-1-9.1-8.7c0.5-42.2,0.2-84.4,0.3-126.6c0-4.6-0.6-8.1-6-8.3c-16.2-0.6-27.7-9.2-37.5-21.1
		c-3.1-3.8-7.2-6.7-10.2-10.5c-4.1-5.2-7-5.6-11.7-0.2c-13.5,15.3-27.6,30.1-41.4,45.2c-2.1,2.3-4,3.8-7.5,3.7
		c-10.1-0.3-20.1-0.2-30.2,0c-3.3,0.1-5.4-0.9-7.6-3.4c-11.3-12.5-22.9-24.8-34.4-37.2c-4.3-4.6-8.5-12.3-13-12.5
		c-4.3-0.2-9.2,7.3-13.4,11.9c-11.2,12.4-22.6,24.2-41,24.6c-5.3,0.1-5.2,3.9-5.2,7.9c0.1,42.5-0.1,85,0.2,127.4
		c0.1,6.7-2,8.1-8.1,7.8c-10.1-0.5-20.2-0.4-30.2,0c-5.4,0.2-6.8-1.4-6.7-6.7c0.3-25.3,0.2-50.6,0.2-76c0-16.3,0-32.5,0-49.5
		c-28.8,6.5-56.7,13-84.7,18.9c-4.8,1-6.9,2.9-8.1,7.3c-14.1,51-28.2,102.1-42.6,153c-6.4,22.5-11.5,45.4-19.5,67.4
		c0,0.5,0,1.1,0,1.6c5.2,3.4,10.9,0.8,16.3,1.6c17.4,0,34.9,0,52.3,0c5.4,0,10.9,0,16.3,0c40.3,0,80.6,0,120.9,0
		c5.4,0,10.9,0,16.3,0c40.3,0,80.6,0,120.9,0c5.4,0,10.9,0,16.3,0c40.3,0,80.6,0,120.9,0c5.4,0,10.9,0,16.3,0c40.3,0,80.6,0,120.9,0
		c5.4,0,10.9,0,16.3,0c51.2,0,102.4,0,153.6,0c-0.1-1.2-0.4-2.4-1.5-3c0.4-3.9-2.7-6.4-5-8.9c-10.4-11.9-20-24.4-30.6-36.1
		c-4.4-4.8-6.4-10.3-6.4-17c0.1-96,0.1-192,0-288.1c0-6.4,1.9-11.3,6.4-16c26-26.7,51.6-53.8,78.3-79.7c3.2-3.1,5.9-6.4,7.8-10.3
		c0-0.5,0-1.1,0-1.6C841.6,344.7,841.3,342.8,840.6,341.5z"/>
	<path d="M138.8,281c127.1-0.2,254.2-0.2,381.4-0.2c20.6,0,20.4,0.1,20-20.5c-0.1-4.5-1.6-5.4-5.6-5.3c-6.2,0.3-12.5,0.1-18.8,0.1
		c-11.6,0-11.5,0-12.1-12c-1.7-30.1-5.9-59.8-15.1-88.6C478,121.2,461.3,92,431.7,71.7c-20.8-14.3-44-21.2-68.7-24.5
		c-8.1-1.1-13.7-1.1-23.8-1.7c-1.6,0,0,0-4.8-0.1c-2.3,0-4.2,0-5.5,0c-10.9-0.1-20.1,1.9-30.8,3.7c-45.5,7.6-79.5,31.4-101,72.2
		c-19.1,36.4-25.7,76.1-28.4,116.5c-1.2,17.3-0.7,17.3-17.8,17.3c-1.6,0-3.3,0-4.9,0c-16.3,0-15.9,0-16.5,16.5
		C129.2,279,131.3,281,138.8,281z"/>
	<path d="M211.5,400c16.5,35.5,37.2,68.2,69.9,91.4c24.3,17.2,50.9,24.2,80,15.1c23.4-7.4,42-22.3,57.8-40.8
		c37.5-43.7,57.5-95.4,68.2-151.6c-100.9,0-201.3,0-301.9,0C190,344.2,198.8,372.8,211.5,400z"/>
</g>
</svg>
