<?xml version="1.0" encoding="utf-8"?>
<!-- Generator: Adobe Illustrator 20.1.0, SVG Export Plug-In . SVG Version: 6.00 Build 0)  -->
<svg version="1.1" id="Layer_1" xmlns="http://www.w3.org/2000/svg" xmlns:xlink="http://www.w3.org/1999/xlink" x="0px" y="0px"
	 viewBox="0 0 200 200" style="enable-background:new 0 0 200 200;" xml:space="preserve">
<style type="text/css">
	.st0{fill:#A1A1A1;}
</style>
<path id="Forma_1" class="st0" d="M193.1,146.4c0,3.9-1.1,7.8-3,11.2L131.3,92l58.1-50.7c2.4,3.7,3.6,8,3.6,12.3V146.4L193.1,146.4z
	 M100,103.9l80.9-70.6c-3.4-1.9-7.2-2.9-11.1-2.9H30.2c-3.9,0-7.7,1-11.1,2.9L100,103.9z M122.6,99.6L103.8,116
	c-2.2,1.9-5.5,1.9-7.7,0L77.5,99.6L18,166.1c3.7,2.3,7.9,3.6,12.3,3.6h139.6c4.3,0,8.6-1.2,12.3-3.6L122.6,99.6z M10.6,41.3
	C8.2,44.9,7,49.2,7,53.6v92.9c0,3.9,1.1,7.8,3,11.2L68.7,92L10.6,41.3z"/>
</svg>
