<?xml version="1.0" encoding="utf-8"?>
<!-- Generator: Adobe Illustrator 20.1.0, SVG Export Plug-In . SVG Version: 6.00 Build 0)  -->
<svg version="1.1" id="Layer_1" xmlns="http://www.w3.org/2000/svg" xmlns:xlink="http://www.w3.org/1999/xlink" x="0px" y="0px"
	 viewBox="0 0 7200 7200" style="enable-background:new 0 0 7200 7200;" xml:space="preserve">
<style type="text/css">
	.st0{fill:#110C00;}
</style>
<path class="st0" d="M3600,5610.7l2233.8,1298.2l-591-2448.4l1971.8-1646.4l-2599.2-214.8L3600,291.1L2584.7,2599.3L-14.6,2814.1
	l1971.8,1646.4l-591,2448.4L3600,5610.7z"/>
</svg>
